{
    "is_core": false,

    "install_dir": "C:/Program Files (x86)/Gigantic/Gigantic-Core_en",
    "output": "C:/Users/mdbaz/Desktop/testing.json",
    "previous_data": "C:/Users/mdbaz/Desktop/testing.json",

    "default_game_location": "/RxGame/Config/DefaultGame.ini",
    "default_skin_location": "/RxGame/Config/DefaultSkin.ini",
    "build_properties_location": "/Binaries/build.properties",
    "localization_location": "/RxGame/Localization",

    "languages": {
        "int": "en",
        "fra": "fr",
        "deu": "de",
        "esn": "es"
    },
    "skill_upgrades": {
        "ESUT_Upgrade1": "L",
        "ESUT_Upgrade1_SubUpgrade1": "LL",
        "ESUT_Upgrade1_SubUpgrade2": "LR",
        "ESUT_Upgrade2": "R",
        "ESUT_Upgrade2_SubUpgrade1": "RL",
        "ESUT_Upgrade2_SubUpgrade2": "RR"
    },
    "skill_buttons": {
        "`skill1button": "LMB",
        "`skill2button": "RMB",
        "`skill3button": "Q",
        "`skill4button": "E",
        "`focusskillbutton": "F"
    },

    "heroes": {
        "short_names": {
            "Minotaur": "Knossos",
            "Assault": "Beckett",
            "Tank": "Margrave",
            "Quarrel": "Imani",
            "Swift": "Tyto",
            "Machine": "HK",
            "Rogue": "Tripp",
            "Warden": "Voden",
            "Judo": "Wu",
            "Bombard": "Charnok",
            "Alchemist": "Sven",
            "Zap": "Mozu",
            "Angel": "Vadasi",
            "Planter": "Griselma",
            "Despair": "Xenobia",
            "Adept": "Aisling",
            "Frosty": "Pakko"
        }
    }
}
